using System;
namespace ComputerToolkit
{
    public class MainClass : ComputerToolkit.Script
    {
        public MainClass(){}
        public object Main()
        {
FormTaskReminder f=new FormTaskReminder(); f.Show();
            return "";
        }
    }
}
